project_path,project_id
gitlab-org/editor-extensions/gitlab-visual-studio-extension,46231956
gitlab-org/data-quality,45393508
gitlab-data/analytics,4409640
gitlab-org/ux-research,2890326
dot-private/resume-and-cover-letter-latex-plain,38465396
gitlab-org/distribution/team-tasks,4492386
gitlab-org/developer-relations/contributor-success/contributor-success-dashboard,51223094
gitlab-com/gl-security/security-assurance/field-security-team/customer-assurance-activities/caa-servicedesk,26487887
gitlab-data/tableau,43945584
gitlab-org/plan,13453461
gitlab-org/gitlab-design,443787
gitlab-org/gitlab-runner-docker-cleanup,444821
gitlab-org/ruby/gems/gitlab-exporter,1507906
gitlab-org/license-gitlab-com,6457868
gitlab-org/gitlab-environment-toolkit,14292404
gitlab-org/git,13284652
gitlab-org/product-feedback,17429946
gitlab-org/gitlab-shell,14022
gitlab-org/gitlab-ui,7071551
gitlab-org/customers-gitlab-com,2670515
gitlab-org/terraform-images,18943607
gitlab-org/cli,34675721
gitlab-org/release-tools,430285
gitlab-org/verify-stage,14146123
gitlab-org/gitlab-elasticsearch-indexer,2953390
gitlab-org/release-cli,16573099
gitlab-org/technical-writing,10614162
gitlab-org/gitlab-qa,1441932
gitlab-org/gitlab-web-ide,35104827
gitlab-org/status-page,16842968
gitlab-org/docker-distribution-pruner,2651596
gitlab-org/grafana-dashboards,928825
gitlab-org/gitlab-foss,13083
gitlab-org/fulfillment-group/meta,10619765
gitlab-org/gitlab-runner,250833
gitlab-org/terraform-provider-gitlab,40916776
gitlab-org/gitlab-pages,734943
gitlab-org/gitlabktl,11080193
gitlab-com/Product,1641463
gitlab-org/gitaly,2009901
gitlab-org/gitlab-vscode-extension,5261717
gitlab-org/gitlab-docs,1794617
gitlab-com/user-interviews,13124561
gitlab-org/gitlab-development-kit,74823
gitlab-org/container-registry,13831684
gitlab-org/gitlab-omnibus-builder,145205
gitlab-org/omnibus-gitlab,20699
gitlab-org/build/omnibus-gitlab-mirror,14588374
gitlab-org/gitlab-mattermost,387896
gitlab-org/gitlab-workhorse,554859
gitlab-org/gitlab-selenium-server,4262096
gitlab-org/analytics-section/analytics-instrumentation/internal,12051824
gitlab-org/project-templates/jsonnet,19985677
gitlab-org/project-templates/cluster-management,17136273
gitlab-org/build/CNG,4359271
gitlab-org/build/CNG-mirror,7682093
gitlab-org/ci-cd/docker-machine,1254421
gitlab-org/ci-cd/gitlab-runner-ubi-images,17019611
gitlab-org/ci-cd/codequality,17035255
gitlab-org/release/tasks,5064907
gitlab-org/security-products/zaproxy,5576532
gitlab-org/security-products/dependency-scanning,5779760
gitlab-org/security-products/gemnasium-db,12006272
gitlab-org/security-products/release,5994307
gitlab-org/security-products/advisories,5417931
gitlab-com/support/support-team-meta,1083469
gitlab-org/quality/triage-reports,16233736
gitlab-org/quality/testcases,11229385
gitlab-org/quality/testcase-sessions,20083979
gitlab-org/quality/quality-enablement-issue-tracker,49169065
gitlab-org/quality/reference-architectures,22057235
gitlab-org/quality/performance,11511606
gitlab-org/geo-team/customers,13017629
gitlab-org/geo-team/discussions,9237774
gitlab-org/secure/general,13740954
gitlab-org/cluster-integration/auto-deploy-image,11688089
gitlab-org/cluster-integration/auto-build-image,10400718
gitlab-org/cluster-integration/gitlab-agent,19019153
gitlab-org/security/gitlab,15642544
gitlab-org/security/gitlab-elasticsearch-indexer,26394287
gitlab-org/security/omnibus-gitlab,15667093
gitlab-org/charts/gitlab-runner,6329679
gitlab-org/charts/gitlab-agent,34907799
gitlab-org/charts/gitlab,3828396
gitlab-org/gitlab-services/design.gitlab.com,4456656
gitlab-org/cloud-native/gitlab-logger,23174714
gitlab-org/configure/general,13454093
gitlab-org/growth/engineering,13589474
gitlab-org/growth/product,13589490
gitlab-org/database-team/team-tasks,14392833
gitlab-org/gl-openshift/gitlab-runner-operator,22848448
gitlab-org/manage/general-discussion,7750063
gitlab-org/architecture/tasks,22351703
gitlab-org/plan-stage/plan-engineering,50261472
gitlab-org/govern/general,26076251
gitlab-org/cloud-native/gitlab-operator,18899486
gitlab-org/incubation-engineering/backlog,42902479
gitlab-com/ops-sub-department/section-ops-request-for-help,36785816
gitlab-org/opstrace/opstrace,32149347
gitlab-org/opstrace/general,33695349
gitlab-com/dev-sub-department/section-dev-request-for-help,38690603
gitlab-com/sec-sub-department/section-sec-request-for-help,39567707
gitlab-org/quality/engineering-analytics/team-tasks,26049633
gitlab-org/customersdot-ansible,26392061
gitlab-org/community-relations/code-contributor-program,41908214
gitlab-org/manage/import/import-export-performance,20014237
gitlab-org/ci-cd/shared-runners/infrastructure,42547967
gitlab-org/ruby/gems/gitlab-triage,3430480
gitlab-org/manage/integrate/discussions,44065559
gitlab-org/ci-cd/custom-executor-drivers/autoscaler,13822214
gitlab-org/security-products/tests/python-pip,5467277
gitlab-org/quality/engineering-productivity/team,34408484
gitlab-org/incubation-engineering/mobile-devops/readme,28659286
gitlab-org/developer-relations/contributor-success/team-task,39971471
gitlab-com/business-technology/enterprise-apps/intake,21155871
gitlab-org/incubation-engineering/service-desk/meta,41046279
gitlab-org/remote-development/gitlab-workspaces-proxy,43788427
gitlab-org/govern/compliance/general,19416940
gitlab-com/sales-team/field-operations/systems,12019779
gitlab-org/incubation-engineering/mobile-devops/feedback,39041388
gitlab-org/modelops/anti-abuse/team-tasks,35854345
gitlab-org/manage/import/support,30281096
gitlab-org/ci-cd/custom-executor-drivers/fargate,16240616
gitlab-org/security-products/analyzers/container-scanning,24673064
gitlab-org/secure/vulnerability-research/research/experiments,24007929
gitlab-org/professional-services-automation/tools/migration/congregate,30561867
gitlab-org/security-products/analyzers/fuzzers/jsfuzz,19871264
gitlab-org/ci-cd/shared-runners/images/gcp/windows-containers,13815397
gitlab-org/ci-cd/shared-runners/images/macstadium/orka,19922160
charts/gitlab-omnibus,6329603
gitlab-org/quality/engineering-productivity/triage-ops-playground,36072369
gitlab-com/www-gitlab-com,7764
gitlab-org/gitlab,278964
gitlab-cookbooks/cookbook-omnibus-gitlab,95156
gitlab-org/gitlab-ci,14288
gitlab-org/trello-power-up,3466815
gitlab-org/gitlab-ci-yml,1209837
gitlab-org/cookbook-gitlab,16648
gitlab-org/gitlab-core-team/general,7783667
gitlab-org/cloud-connector-team/team-tasks,13017990
gitlab-org/plan-stage/okr-sandbox,23862566
gitlab-org/editor-extensions/gitlab-language-server-for-code-suggestions,46519181
gitlab-org/ci-cd/release-group/release,16302012
gitlab-com/gl-security/security-department-meta,4501968
gitlab-org/quality/engineering-productivity/master-broken-incidents,40549124
gitlab-com/gl-security/security-assurance/security-compliance-commercial-and-dedicated/observation-management,18824670
gitlab-com/security-accountability,7552429
gitlab-com/teampage-map,6621605
gitlab-data/meltano-gitlab,23190568
gitlab-examples/review-apps-nginx,1713704
gitlab-org/gitlab-recipes,13764
gitlab-services/version-gitlab-com,6491770
gitlab-com/marketing/corporate_marketing/contribute/contribute-2020,11676871
gitlab-org/monitor/sandbox/manual_prometheus,13584096
gitlab-examples/ops/incident-setup/everyone/tanuki-inc,14986497
gitlab-org/security-products/cwe-info-go,15232184
gitlab-examples/security/simply-simple-notes,15310444
gitlab-org/ci-cd/package-stage/cicd_101/story-of-beans,15499610
gitlab-examples/security/simply-simple-notes-whitesource,17599029
gitlab-com/gl-security/threatmanagement/redteam/redteam-public/gitrob,17763431
gitlab-org/security-products/demos/django,25582529
gitlab-org/security-products/demos/dropwizard,25582530
gitlab-org/security-products/demos/flask,25582531
gitlab-org/security-products/demos/go-tree-sitter,25582532
gitlab-org/security-products/demos/pmd,25582534
gitlab-org/security-products/demos/socket-io,25582535
gitlab-org/security-products/demos/spring-framework,25582562
gitlab-com/gl-security/product-security/inventory,26580586
gitlab-org/opstrace/cortex-operator,32304444
gitlab-com/gl-security/security-assurance/team-security-dedicated-compliance/team-files,35717415
gitlab-org/plan-stage/frontend-engineers/test-project,37633363
gitlab-org/secure/gsoc-sast-benchmark/baselines/WebGoat,38132140
gitlab-org/secure/gsoc-sast-benchmark/baselines/vuln-flask-web-app,38624068
gitlab-org/ruby/gems/attr_encrypted,39527006
gitlab-org/manage/import/gitlab-migration-test/tina-gmt-group/multi-docker,41307662
gitlab-org/ci-cd/gitlab-runner-stress/kafka,41875259
gitlab-org/quality/customerdot-test-case-sessions-sandbox,48907354
gitlab-org/gl-security/security-engineering/security-automation/spam/spamcheck,43384483
gitlab-private/gl-security/engineering-and-research/automation-team/escalator/appsec-escalator,17053917
gitlab-com/gitlab-OKRs,42280777
gitlab-com/it/end-user-services/issues/it-help-issue-tracker,45351306
gitlab-com/gl-infra/production,7444821
gitlab-com/gl-infra/reliability,1304532
gitlab-com/gl-infra/cloudflare,12449861
gitlab-com/gl-infra/infra-mgmt,42240633
gitlab-com/gl-infra/reliability-sav,33130129
gitlab-com/gl-infra/reliability-reports,43323437
gitlab-com/gl-infra/on-call-handovers,14856495
gitlab-com/gl-infra/stackarmor,38852811
gitlab-com/gl-infra/ci-images,12968493
gitlab-com/gl-infra/oncall-robot-assistant,3950829
gitlab-com/gl-infra/capacity-planning,26716041
gitlab-com/gl-infra/cloudflare-firewall,18171162
gitlab-com/gl-infra/fluentd-docker,23798234
gitlab-com/gl-infra/on-call-handovers-test,33521765
gitlab-com/gl-infra/tamland,20709159
gitlab-com/gl-infra/scalability,14231319
gitlab-com/gl-infra/mstaff,20095954
gitlab-com/gl-infra/redis-build,41300770
gitlab-com/gl-infra/next.gitlab.com,10956869
gitlab-com/gl-infra/readiness,13170322
gitlab-com/gl-infra/certificates-updater,14778692
gitlab-com/gl-infra/delivery,8223987
gitlab-com/gl-infra/feature-flag-log,15208716
gitlab-com/gl-infra/woodhouse-integration-test,21720730
gitlab-com/gl-infra/gitlab-services,35744565
gitlab-com/gl-infra/capacity-planning-test,42376761
gitlab-com/gl-infra/es-diagnostics,18874917
gitlab-com/gl-infra/k8s-workloads/gitlab-com,12547113
gitlab-com/gl-infra/production-engineering,1304532
gitlab-com/gl-security/threatmanagement/vulnerability-management/vulnerability-management-internal/vulnerability-management-tracker,34199366
gitlab-com/gl-security/threatmanagement/vulnerability-management/vulnerability-management-internal/wiz-vulnerabilities,52970585
gitlab-org/build/cng-security,52764962
gitlab-org/ci-cd/shared-runners/images/macstadium/orka,19922160
gitlab-org/cloud-native/charts/gitlab-ingress-nginx,32970696
gitlab-org/cluster-integration/helm-install-image,9184510
gitlab-org/ruby/gems/devfile-gem,43473862
gitlab-org/security-products/analyzers/api-fuzzing-src,5964710
gitlab-org/security-products/analyzers/kics,30656896
gitlab-org/security-products/analyzers/secrets,10861561
gitlab-org/security-products/analyzers/semgrep,24075172
gitlab-com/gl-security/security-assurance/security-risk-team/storm-risk-register,52900819
gitlab-com/gl-security/security-assurance/fedramp/conmon-scans,44355113
gitlab-com/gl-security/security-assurance/team-commercial-compliance/user-access-review,32941490
gitlab-org/quality/pipeline-triage,15291320
gitlab-com/gl-security/product-security/product-security-engineering/product-security-engineering-team,49199627
gitlab-com/gl-security/security-assurance/governance-and-field-security/field-security-team/customer-assurance-activities/caa-servicedesk,26487887
gitlab-com/marketing/marketing-strategy-performance,21503756
gitlab-com/account-management/eastern-north-america/clario/clario-success-plan,62746363
gitlab-com/account-management/western-north-america/salesforce-group/salesforce-success-plan,62385280
gitlab-com/account-management/eastern-north-america/truist-group/truist,11767955
gitlab-com/account-management/commercial/credit-one-group/credit-one-success-plan,62466940
gitlab-com/account-management/apac/australia/bhp/success-plan,65154430
gitlab-com/account-management/grammarly/grammarly,12333288
gitlab-com/account-management/eastern-north-america/infor/infor-success-plan,56704081
gitlab-com/account-management/western-north-america/electronic-arts/ea-sp,61548761
gitlab-com/account-management/western-north-america/fiserv/fiserv-fts,11226276
gitlab-com/account-management/1password/1password,13797543
gitlab-com/account-management/western-north-america/t-mobile-group/cybersecurity-requests,57956188
gitlab-com/account-management/emea/core42/core42-success-plan,64280880
gitlab-com/account-management/commercial/tekion-group/tekion-success-plan,62850057
gitlab-com/account-management/eastern-north-america/first-citizen-bank/silicon-valley-bank,21638305
gitlab-com/account-management/apac/australia/betmakers/success-plan,65526797
gitlab-com/account-management/western-north-america/american-family-group/american-family-success-plan,62207829
gitlab-com/account-management/eastern-north-america/macy-s/macys-success-plan,61069391
gitlab-com/account-management/eastern-north-america/halliburton-company/halliburton,10524335
gitlab-com/account-management/eastern-north-america/iron-mountain/pov-duo/ai-pov,59299776
gitlab-com/account-management/western-north-america/fortinet-inc/fortinet-success-plan,62775155
gitlab-com/account-management/eastern-north-america/ge-healthcare-us/ge-healthcare-success-plan,61010987
gitlab-com/account-management/commercial/cgi-group/cgi-success-plan,62704386
gitlab-com/account-management/eastern-north-america/sei-global-services/sei-global-collaboration-project,57270863
gitlab-com/account-management/eastern-north-america/charter-communications-group/charter-communications,7805316
gitlab-com/account-management/western-north-america/apple-corp/apple-seg-success-plan,61044733
gitlab-com/account-management/eastern-north-america/paycom-payroll-inc/paycom-payroll-pov,24253841
gitlab-com/account-management/eastern-north-america/delta-airlines/Delta,4126589
gitlab-com/account-management/continuous-planning/example-collab-group/example-collab-project,53171840
gitlab-com/account-management/emea/emirates/emirates-success-plan,64279048
gitlab-com/account-management/western-north-america/country-financial/country-mutual-success-plan,60607708
gitlab-com/account-management/western-north-america/palo-alto-networks-group/palo-alto-networks-success-plan,61968872
gitlab-com/account-management/eastern-north-america/dell-group/dell-emc-collaboration-group/dell-digital-success-plan-pipeline,56084335
gitlab-com/account-management/commercial/cgi-group/cgi-inc/cgi,26770399
gitlab-com/account-management/western-north-america/lucid/lucid-collaboration-project,34323282
gitlab-com/account-management/emea/jlp/jlp-collab,24863473
gitlab-com/account-management/eastern-north-america/cummins/2024-mutual-success-plan,61802715
gitlab-com/account-management/eastern-north-america/yum/yum-brands,20385237
gitlab-com/account-management/emea/natwest/natwest-dedicated-collaboration,29314616
gitlab-com/account-management/emea/lely-services-group/lely-services-success-plan,65340329
gitlab-com/account-management/eastern-north-america/dell-group/dell-emc-collaboration-group/dell-emc-digital,5580956
gitlab-com/account-management/western-north-america/disney-group/disney-success-planning,61639243
gitlab-com/account-management/eastern-north-america/blackstone-group/blackstone,32713711
gitlab-com/account-management/apac/australia/optus/success-plan,65526483
gitlab-com/account-management/apac/thailand/agoda/success-plan,65109911
gitlab-com/account-management/emea/siemens/sdis-sp,65037108
gitlab-com/account-management/commercial/applied-systems-group/applied-systems-success-plan,62845277
gitlab-com/account-management/emea/renault/renault-success-plan,64856874
gitlab-com/account-management/emea/lseg/collaboration,19546983
gitlab-com/account-management/emea/jlp/jlp-continuous-success-plan,64619367
gitlab-com/account-management/eastern-north-america/lululemon-athletica/lululemon-athletica,24816201
gitlab-com/account-management/apac/australia/bendigo-and-adelaide-bank/bendigo-and-adelaide-bank-success-plan,62920299
gitlab-com/account-management/western-north-america/epic-systems/epic-systems-success-plan,62715655
gitlab-com/account-management/eastern-north-america/dell-federal/dell-federal-collab-project,62708496
gitlab-com/account-management/western-north-america/boeing-group/boeing-success-planning,62239153
gitlab-com/account-management/emea/aldi-sued/aldi-success-plan,64252212
gitlab-com/account-management/apac/japan/renesas-electronics/renesas-success-plan,65086637
gitlab-com/account-management/emea/trendyol/trendyol-success-plan-bp,65229952
gitlab-com/account-management/eastern-north-america/BNYM-Group/bny-duo-eval,60093660
gitlab-com/account-management/western-north-america/lucid/lucid-success-plan,62715797
gitlab-com/account-management/emea/infineon-com/continuous-planning/success-plan,61754037
gitlab-com/account-management/eastern-north-america/indeed-group/indeed,6900564
gitlab-com/account-management/emea/jaguar-land-rover-group/jaguar-land-rover-idt-engineering/jlr-ai-pov-plan,60528722
gitlab-com/account-management/apac/australia/telstra/success-plan,65525378
gitlab-com/account-management/emea/jaguar-land-rover-group/jaguar-land-rover-idt-engineering/jlr-sdv-collab-project,54162458
gitlab-com/account-management/eastern-north-america/oracle/oracle-netsuite/oracle-netsuite,33364239
gitlab-com/account-management/emea/sap/sap-sovereign-cloud/success-plan,64278553
gitlab-com/account-management/eastern-north-america/bell-canada/bell-network,13665065
gitlab-com/account-management/eastern-north-america/wabtec/wabtec,8785473
gitlab-com/account-management/western-north-america/roku-inc/roku-success-plan,62715927
gitlab-com/account-management/payward-kraken/payward,34878110
gitlab-com/account-management/continuous-planning/demo-customer/demo-customer-success-plan,55694491
gitlab-com/account-management/western-north-america/zoom-video-communications-group/zoom-success-plan,62989390
gitlab-com/account-management/emea/continuous-planning-and-success-plan-blueprint/project-customer-name,64682860
gitlab-com/account-management/eastern-north-america/toyota/tmna/tmna,14861036
gitlab-com/account-management/eastern-north-america/red-hat/red-hat-success-plan,62940976
gitlab-com/account-management/emea/internal-tam-orga/julius-baer-bank_success-plan/julius-baer-bank-success-plan,65168781
gitlab-com/account-management/emea/jaguar-land-rover-group/jaguar-land-rover-idt-engineering/general-collab-project,60501394
gitlab-com/account-management/emea/VW/archive-cariad/success-plan,64916144
gitlab-com/account-management/western-north-america/state-farm/state-farm,5855919
gitlab-com/account-management/eastern-north-america/carfax-group/carfax,17377171
gitlab-com/account-management/commercial/credit-one-group/credit-one-bank,29586693
gitlab-com/account-management/eastern-north-america/tiaa-gitlab-collaboration-groip/tiaa-success-plan,65453868
gitlab-com/account-management/eastern-north-america/quest-diagnostics/quest,16751979
gitlab-com/account-management/eastern-north-america/koch-industries/koch-success-plan,56630354
gitlab-com/account-management/western-north-america/Rockwell_group/rockwell-sp,61007358
gitlab-com/account-management/eastern-north-america/kohl-s/kohls,22959100
gitlab-com/account-management/western-north-america/f5-inc/f5-inc-success-plan,61646078
gitlab-com/account-management/emea/lseg/lseg-success-plan,65235343
gitlab-com/account-management/commercial/planet-labs-group/planet-labs-success-plan,62744023
gitlab-com/account-management/western-north-america/broadcom-group/broadcom-success-plan,62879357
gitlab-com/account-management/emea/vodacom/Vodacom_success_plan,64264026
gitlab-com/account-management/emea/roche-com/roche/success-plan,61787255
gitlab-com/account-management/eastern-north-america/cigna-group/cigna,5704746
gitlab-com/account-management/eastern-north-america/oracle/ocn/oracle-cloud-native,53813211
gitlab-com/account-management/eastern-north-america/sony/sie-success-planning-group/sony-interactive,9308076
gitlab-com/account-management/continuous-planning/example-collab-group/continuous-planner,53171863
gitlab-com/account-management/western-north-america/dish-group/dish-tech/dish-tech-success-plan,62386756
gitlab-com/account-management/emea/thales/thales-success-plan,65449058
gitlab-com/account-management/western-north-america/dish-group/it-shared-services/it-shared-services-success-plan,62386739
gitlab-com/account-management/exfo/exfo,21482660
gitlab-com/account-management/emea/VW/cariad/cariad-collaboration-project,62798236
gitlab-com/account-management/emea/mb-mic-team/mic-success-plan,63131305
gitlab-com/account-management/western-north-america/zillow-group/zillow,14131963
gitlab-com/account-management/eastern-north-america/phonepe-group/phonepe,21502467
gitlab-com/account-management/early-warning-services/early-warning,24460071
gitlab-com/account-management/commercial/bi-worldwide-group/bi-worldwide-success-plan,59790363
gitlab-com/account-management/eastern-north-america/q2-software/q2-success-plan,60052213
gitlab-com/account-management/western-north-america/cisco-group/splunk-group/splunk-success-plan,61262294
gitlab-com/account-management/apac/singapore/mindef/dsta/success-plan,65525576
gitlab-com/account-management/emea/hella/success-plan,65373798
gitlab-com/account-management/eastern-north-america/the-canada-life-assurance-company/canada-life,50695105
gitlab-com/account-management/eastern-north-america/northwestern-mutual/NorthwesternMutual,5384965
gitlab-com/account-management/emea/maggioli-spa/maggioli-success-plan,65227363
gitlab-com/account-management/emea/here-global/here-global-success-plan,64940888
gitlab-com/account-management/western-north-america/cisco-group/meraki/cisco-meraki-team,16725311
gitlab-com/account-management/eastern-north-america/oracle/oracle-advertising/oracle-data-cloud,5833585
gitlab-com/account-management/western-north-america/cloudflare-inc/cloudflare-success-plan,62715987
gitlab-com/account-management/emea/the-climate-cooperation/climate-llc/success-plan,64248251
gitlab-com/account-management/western-north-america/vertiv/mutual-success-plan,62007672
gitlab-com/account-management/emea/scania-ab-group/traton-success-plan,64748251
gitlab-com/account-management/eastern-north-america/BNYM-Group/BNY-Mellon,5964232
gitlab-com/account-management/eastern-north-america/goldman-sachs-group/GoldmanSachs,5051657
gitlab-com/account-management/western-north-america/qualcomm-group/qualcomm,9497089
gitlab-com/account-management/western-north-america/sofi-group/sofi-success-plan,61038941
gitlab-com/account-management/apac/india/gupshup/success-plan,65154406
gitlab-com/account-management/western-north-america/centene-group/centene,16302611
gitlab-com/account-management/eastern-north-america/USAA/USAA,5754175
gitlab-com/account-management/western-north-america/amgen-group/amgen-sp,59863541
gitlab-com/account-management/eastern-north-america/iron-mountain/iron-mountain,18599591
gitlab-com/account-management/eastern-north-america/oracle/shared/oracle,59470684
gitlab-com/account-management/eastern-north-america/highmark-health/highmark-health,21807280
gitlab-com/account-management/emea/bt-group/collaboration,20392757
gitlab-com/account-management/eastern-north-america/Nielsen-GitLab-Collaboration-Group/nielsen-success-plan,59863775
gitlab-com/account-management/eastern-north-america/mt-bank/mtb,15129591
gitlab-com/account-management/eastern-north-america/troweprice/t.rowe-price,20717202
gitlab-com/account-management/emea/telekom/telekom-success-plan/telekom-success-plan,64645605
gitlab-com/account-management/eastern-north-america/q2-software/q2-software-collaboration-project,60027290
gitlab-com/account-management/eastern-north-america/tiaa-gitlab-collaboration-groip/TIAA,5731755
gitlab-com/account-management/apac/australia/aussie-broadband/success-plan,65525356
gitlab-com/account-management/western-north-america/snowflake/snowflake-collaboration-project,62835243
gitlab-com/account-management/emea/deutsche-flugsicherung/dfs-continuous-planning/success-planning,65479299
gitlab-com/account-management/western-north-america/veeva-group/veeva-systems,13837772
gitlab-com/account-management/eastern-north-america/broadridge-group/broadridge,15114395
gitlab-com/account-management/apac/singapore/grab/success-plan,65526572
gitlab-com/account-management/eastern-north-america/southwest-airlines/southwest-airlines-collab,16300791
gitlab-com/account-management/eastern-north-america/sp-global-group/spglobal,4878623
gitlab-com/account-management/western-north-america/change-healthcare-aka-optum/change-healthcare-continuous-success-planning,63068059
gitlab-com/account-management/western-north-america/state-farm/mutual-success-plan,61971064
gitlab-com/account-management/western-north-america/davita-health/davita-inc,18606289
gitlab-com/account-management/western-north-america/exact-sciences-group/exact-sciences-success-plan,61761923
gitlab-com/account-management/eastern-north-america/the-mathworks/the-mathworks,54685498
gitlab-com/account-management/apac/japan/olympus/olympus-success-plan,65029320
gitlab-com/account-management/eastern-north-america/dell-group/dell-emc-collaboration-group/2024-security-pov,55459818
gitlab-com/account-management/western-north-america/caesars-digital/caesars-digital-success-planning,62417199
gitlab-com/account-management/western-north-america/ally-financial/ally-financial-success-plan,61289527
gitlab-com/account-management/western-north-america/ticketmaster-group/ticketmaster,9120954
gitlab-com/account-management/western-north-america/corteva-group/corteva-granular-success-plan,63016168
gitlab-com/account-management/eastern-north-america/arvest-bank-operations/arvest,39181876
gitlab-com/account-management/western-north-america/abercrombie-fitch/mutual-success-plan,61935100
gitlab-com/account-management/western-north-america/wu-group/wu-success-plan,61007814
gitlab-com/account-management/eastern-north-america/highmark-health/highmark-success-plan,56309118
gitlab-com/account-management/eastern-north-america/lazard-gitlab-collaboration-group/lazard-success-plan,62131357
gitlab-com/account-management/emea/kfw-bankengruppe/kfw-bankengruppe-success-plan,65040002
gitlab-com/account-management/western-north-america/smartsheet/smartsheet-success-plan,62715945
gitlab-com/account-management/emea/bnp/bnpp-success-plan,65297841
gitlab-com/account-management/commercial/planet-labs-group/planet,35924159
gitlab-com/account-management/western-north-america/KeyBankGroup/keybank,35581503
gitlab-com/account-management/eastern-north-america/oracle/oracle-sdaas/oracle-software-delivery-as-a-service,16491487
gitlab-com/account-management/apac/japan/nissan-motors/nissan-motors,61265944
gitlab-com/account-management/eastern-north-america/genworth-subgroup/genworth-success-plan,60017554
gitlab-com/account-management/commercial/applied-systems-group/applied-systems,18601508
gitlab-com/account-management/emea/mbition/continuous-planning/mbition-success-plan,61437827
gitlab-com/account-management/western-north-america/servicenow-group/ServiceNow,5973936
gitlab-com/account-management/templates/success-plan-blueprint-data,62191617
gitlab-com/account-management/western-north-america/palo-alto-prisma-group/palo-alto-prisma-success-plan,61973908
gitlab-com/account-management/apac/singapore/mindef/csit/success-plan,65524996
gitlab-com/account-management/emea/atruvia-ag/atruvia,43291208
gitlab-com/account-management/western-north-america/nu-skin-enterprises/nu-skin-success-plan,63080709
gitlab-com/account-management/apac/singapore/htx/ica/success-plan,65526739
gitlab-com/account-management/eastern-north-america/toyota/toyota-connected/tcna/toyota-connected-north-america,14520827
gitlab-com/account-management/emea/european-central-bank/ecb-success-plan,64519848
gitlab-com/account-management/onetrust-group/onetrust-poc,52429006
gitlab-com/account-management/commercial/opentext-group/opentext,18110356
gitlab-com/account-management/emea/aldi-sued/collaboration-project,18727459
gitlab-com/account-management/eastern-north-america/corning-group/corning,19126346
gitlab-com/account-management/eastern-north-america/delta-airlines,78937165
gitlab-com/account-management/western-north-america/wu-group,92169905
gitlab-com/account-management/western-north-america/servicenow-group,93856105
gitlab-com/account-management/emea/credit-agricole,88871276
gitlab-com/account-management/eastern-north-america/paycom-payroll-inc,95174193
gitlab-com/account-management/western-north-america/davita-health,95172393
gitlab-com/account-management/eastern-north-america/oracle/ocn,80788617
gitlab-com/account-management/emea/jlp,11189508
gitlab-com/account-management/eastern-north-america/lazard-gitlab-collaboration-group,94113762
gitlab-com/account-management/western-north-america/abercrombie-fitch,91486060
gitlab-com/account-management/eastern-north-america/lululemon-athletica,61697209
gitlab-com/account-management/emea/mindef,64780440
gitlab-com/account-management/emea/lseg,8374519
gitlab-com/account-management/emea/kfw-bankengruppe,67780123
gitlab-com/account-management/emea/uk-mod,97648398
gitlab-com/account-management/emea/sap/sap-sovereign-cloud,97045151
gitlab-com/account-management/emea/hella,10995696
gitlab-com/account-management/emea/maggioli-spa,82431977
gitlab-com/account-management/western-north-america/smartsheet,70465772
gitlab-com/account-management/eastern-north-america/kohl-s,11874471
gitlab-com/account-management/emea/VW/cariad,98989854
gitlab-com/account-management/eastern-north-america/charter-communications-group,82591143
gitlab-com/account-management/western-north-america/caesars-digital,94595727
gitlab-com/account-management/emea/lely-services-group,98730101
gitlab-com/account-management/eastern-north-america/iron-mountain/pov-duo,89393417
gitlab-com/account-management/western-north-america/fiserv,7381065
gitlab-com/account-management/emea/aldi-sued,7912617
gitlab-com/account-management/western-north-america/lucid,95052874
gitlab-com/account-management/eastern-north-america/indeed-group,69100835
gitlab-com/account-management/emea/infineon-com/continuous-planning,93458795
gitlab-com/account-management/western-north-america/boeing-group,55753285
gitlab-com/account-management/apac/japan/suzuki-motor,13344324
gitlab-com/account-management/western-north-america/KeyBankGroup,93855625
gitlab-com/account-management/apac/singapore/govtech,58898496
gitlab-com/account-management/apac/japan/renesas-electronics,11453970
gitlab-com/account-management/eastern-north-america/mt-bank,93265779
gitlab-com/account-management/emea/bol.com,98997841
gitlab-com/account-management/emea/natwest,16752246
gitlab-com/account-management/eastern-north-america/q2-software,90560350
gitlab-com/account-management/apac/singapore/mindef/csit,99246791
gitlab-com/account-management/emea/trendyol,9050277
gitlab-com/account-management/grammarly,87389614
gitlab-com/account-management/apac/australia/aussie-broadband,13463136
gitlab-com/account-management/eastern-north-america/blackstone-group,92814007
gitlab-com/account-management/eastern-north-america/wabtec,7983058
gitlab-com/account-management/eastern-north-america/cigna-group,94891201
gitlab-com/account-management/eastern-north-america/tiaa-gitlab-collaboration-groip,90922108
gitlab-com/account-management/apac/australia/betmakers,94986433
gitlab-com/account-management/onetrust-group,95432000
gitlab-com/account-management/eastern-north-america/arvest-bank-operations,87670351
gitlab-com/account-management/western-north-america/american-family-group,94258198
gitlab-com/account-management/apac/india/gupshup,98583333
gitlab-com/account-management/emea/bt-group,8761247
gitlab-com/account-management/eastern-north-america/corning-group,99130355
gitlab-com/account-management/commercial/applied-systems-group,95295715
gitlab-com/account-management/western-north-america/state-farm,7909313
gitlab-com/account-management/western-north-america/dish-group/it-shared-services,94547445
gitlab-com/account-management/eastern-north-america/broadridge-group,99128746
gitlab-com/account-management/eastern-north-america/sp-global-group,91813882
gitlab-com/account-management/emea/jaguar-land-rover-group,10240392
gitlab-com/account-management/emea/bnp,6341939
gitlab-com/account-management/eastern-north-america/lincoln-financial-group,98083983
gitlab-com/account-management/emea/carrefour,65720388
gitlab-com/account-management/western-north-america/medecision,95692719
gitlab-com/account-management/emea/veolia-collab-group,99218083
gitlab-com/account-management/emea/deutsche-flugsicherung/dfs-continuous-planning,99164668
gitlab-com/account-management/western-north-america/disney-group,10095338
gitlab-com/account-management/western-north-america/qualcomm-group,95172119
gitlab-com/account-management/western-north-america/amgen-group,90328141
gitlab-com/account-management/western-north-america/vertiv,91485949
gitlab-com/account-management/eastern-north-america/red-hat,7365897
gitlab-com/account-management/eastern-north-america/truist-group,89581900
gitlab-com/account-management/eastern-north-america/infor,67420913
gitlab-com/account-management/western-north-america/zillow-group,80546808
gitlab-com/account-management/apac/australia/services-australia,9140271
gitlab-com/account-management/western-north-america/electronic-arts,93104321
gitlab-com/account-management/western-north-america/roku-inc,95053417
gitlab-com/account-management/commercial/planet-labs-group,95114597
gitlab-com/account-management/eastern-north-america/nasdaq-ps,54968507
gitlab-com/account-management/eastern-north-america/the-mathworks,82200978
gitlab-com/account-management/commercial,4686897
gitlab-com/account-management/eastern-north-america/iron-mountain,10874958
gitlab-com/account-management/eastern-north-america/macy-s,91930373
gitlab-com/account-management/eastern-north-america/dell-group/dell-emc-collaboration-group,84459762
gitlab-com/account-management/western-north-america/apple-corp,92227938
gitlab-com/account-management/eastern-north-america/the-canada-life-assurance-company,74391572
gitlab-com/account-management/eastern-north-america/quest-diagnostics,99192605
gitlab-com/account-management/eastern-north-america/halliburton-company,79629007
gitlab-com/account-management/eastern-north-america/northwestern-mutual,89808380
gitlab-com/account-management/eastern-north-america/Nielsen-GitLab-Collaboration-Group,83035267
gitlab-com/account-management/open-text-inc,93160398
gitlab-com/account-management/emea/roche-com/roche,93514134
gitlab-com/account-management/eastern-north-america/oracle/shared,89746255
gitlab-com/account-management/emea/emirates,94886233
gitlab-com/account-management/western-north-america/Rockwell_group,92168787
gitlab-com/account-management/apac/japan/isuzu-motors,61851435
gitlab-com/account-management/eastern-north-america/troweprice,87604103
gitlab-com/account-management/emea/core42,97049396
gitlab-com/account-management/emea/vodacom,96974438
gitlab-com/account-management/commercial/tekion-group,95303386
gitlab-com/account-management/eastern-north-america/yum,79572560
gitlab-com/account-management/western-north-america/t-mobile-group,8027418
gitlab-com/account-management/eastern-north-america/oracle/oracle-advertising,79367082
gitlab-com/account-management/apac/thailand/agoda,98511780
gitlab-com/account-management/emea/mb-mic-team,95796161
gitlab-com/account-management/apac/australia/bendigo-and-adelaide-bank,7752525
gitlab-com/account-management/eastern-north-america/carfax-group,13713796
gitlab-com/account-management/eastern-north-america/phonepe-group,95428256
gitlab-com/account-management/western-north-america/centene-group,65888002
gitlab-com/account-management/emea/tno,98994803
gitlab-com/account-management/western-north-america/cloudflare-inc,95053523
gitlab-com/account-management/eastern-north-america/iqvia-top-level,79615670
gitlab-com/account-management/eastern-north-america/toyota/toyota-connected/tcna,79133567
gitlab-com/account-management/western-north-america/corteva-group,95578553
gitlab-com/account-management/commercial/opentext-group,95758445
gitlab-com/account-management/eastern-north-america/oracle/oracle-sdaas,79356435
gitlab-com/account-management/commercial/bi-worldwide-group,90218740
gitlab-com/account-management/western-north-america/exact-sciences-group,93470543
gitlab-com/account-management/emea/easdale,51109999
gitlab-com/account-management/eastern-north-america/oracle/oracle-netsuite,79354619
gitlab-com/account-management/eastern-north-america/USAA,79018949
gitlab-com/account-management/western-north-america/intuitive-surgical-group,97854418
gitlab-com/account-management/western-north-america/nvidia-group,9619101
gitlab-com/account-management/emea/internal-tam-orga/julius-baer-bank_success-plan,98622526
gitlab-com/account-management/emea/the-climate-cooperation/climate-llc,96993247
gitlab-com/account-management/apac/singapore/mindef/dsta,99246782
gitlab-com/account-management/eastern-north-america/toyota/tmna,79123088
gitlab-com/account-management/emea/barclays,70770451
gitlab-com/account-management/western-north-america/zoom-video-communications-group,95557779
gitlab-com/account-management/emea/scania-ab-group,65323752
gitlab-com/account-management/continuous-planning/demo-customer,83807199
gitlab-com/account-management/western-north-america/epic-systems,95052839
gitlab-com/account-management/eastern-north-america/h-e-b,97583927
gitlab-com/account-management/apac/japan/olympus,72512562
gitlab-com/account-management/eastern-north-america/cummins,91333633
gitlab-com/account-management/emea/mbition/continuous-planning,92915722
gitlab-com/account-management/emea/here-global,98168240
gitlab-com/account-management/eastern-north-america/BNYM-Group,52518160
gitlab-com/account-management/western-north-america/palo-alto-prisma-group,93841406
gitlab-com/account-management/eastern-north-america/fannie_mae,94891520
gitlab-com/account-management/western-north-america/snowflake,65403688
gitlab-com/account-management/emea/telekom/telekom-success-plan,97690789
gitlab-com/account-management/eastern-north-america/clario,95118380
gitlab-com/account-management/emea/renault,14198484
gitlab-com/account-management/western-north-america/nu-skin-enterprises,95703485
gitlab-com/account-management/emea/siemens,77859238
gitlab-com/account-management/eastern-north-america/bell-canada,97160653
gitlab-com/account-management/emea/thales,81933638
gitlab-com/account-management/western-north-america/veeva-group,91300498
gitlab-com/account-management/western-north-america/fortinet-inc,95173534
gitlab-com/account-management/western-north-america/blue-origin,95426466
gitlab-com/account-management/emea/hargreaves-lansdown,98989996
gitlab-com/account-management/emea/virgin-media-o2,13793096
gitlab-com/account-management/western-north-america/ticketmaster-group,95172291
gitlab-com/account-management/eastern-north-america/goldman-sachs-group,12770182
gitlab-com/account-management/apac/singapore/htx/ica,98305443
gitlab-com/account-management/emea/adyen,98735007
gitlab-com/account-management/western-north-america/dish-group/dish-tech,94547455
gitlab-com/account-management/western-north-america/country-financial,91485825
gitlab-com/account-management/eastern-north-america/first-citizen-bank,95411023
gitlab-com/account-management/commercial/cgi-group,95034903
gitlab-com/account-management/emea/atruvia-ag,98459176
gitlab-com/account-management/1password,89852617
gitlab-com/account-management/western-north-america/us-bank-group,94550161
gitlab-com/account-management/payward-kraken,89744792
gitlab-com/account-management/commercial/cgi-group/cgi-inc,92931170
gitlab-com/account-management/eastern-north-america/toyota/toyota-connected,10106673
gitlab-com/account-management/western-north-america/palo-alto-networks-group,93836574
gitlab-com/account-management/templates,4752251
gitlab-com/account-management/eastern-north-america/dell-federal,95040501
gitlab-com/account-management/eastern-north-america/ge-healthcare-us,92175226
gitlab-com/account-management/commercial/credit-one-group,94675052
gitlab-com/account-management/western-north-america/ally-financial,10929210
gitlab-com/account-management/emea/european-central-bank,97542786
gitlab-com/account-management/eastern-north-america/sei-global-services,86319145
gitlab-com/account-management/emea/ocado,14110684
gitlab-com/account-management/emea/pearson,11809923
gitlab-com/account-management/exfo,90540252
gitlab-com/account-management/western-north-america/sofi-group,92217967
gitlab-com/account-management/western-north-america/google-group/google-ce-csp,94548933
gitlab-com/account-management/western-north-america/cisco-group/splunk-group,7309332
gitlab-com/account-management/apac/australia/telstra,14226044
gitlab-com/account-management/apac/australia/optus,88329782
gitlab-com/account-management/western-north-america/cisco-group/meraki,92666389
gitlab-com/account-management/eastern-north-america/erie-insurance-group,97098160
gitlab-com/account-management/emea/continuous-planning-and-success-plan-blueprint,97755009
gitlab-com/account-management/eastern-north-america/genworth-subgroup,90546666
gitlab-com/account-management/western-north-america/change-healthcare-aka-optum,95689002
gitlab-com/account-management/eastern-north-america/sony/sie-success-planning-group,99192158
gitlab-com/account-management/western-north-america/salesforce-group,94541388
gitlab-com/account-management/western-north-america/f5-inc,93271437
gitlab-com/account-management/emea/michelin,13824466
gitlab-com/account-management/early-warning-services,90666702
gitlab-com/account-management/eastern-north-america/koch-industries,65386164
gitlab-com/account-management/western-north-america/broadcom-group,95364351
gitlab-com/account-management/eastern-north-america/highmark-health,9762169
gitlab-com/account-management/continuous-planning/example-collab-group,79783885
gitlab-com/account-management/apac/singapore/grab,12839710
gitlab-com/account-management/apac/australia/bhp,12601053
gitlab-com/account-management/eastern-north-america/southwest-airlines,9855311